{
    "android": {
        "release": {
            "keystore": "catatankeuangan.keystore",
            "storePassword": "bismillah",
            "alias": "catatankeuangan",
            "password" : "bismillah",
            "keystoreType": "JKS"
        }
    }
}